****************** EventTree *****************
Number of Events: 21
Number of Branches: 16
Event histogram: [0, 3, 3, 3, 3, 4, 0, 0, 0, 0, 0, 0, 0, 0, 0, 0, 0, 0, 0, 0, 0]
**********************************************
