****************** EventTree *****************
Number of Events: 19
Number of Branches: 13
Event histogram: [0, 2, 4, 2, 5, 0, 0, 0, 0, 0, 0, 0, 0, 0, 0, 0, 0, 0, 0, 0, 0]
**********************************************
