startActivity(, intent=[ action:android.intent.action.MAIN, cat: [android.intent.category.LAUNCHER] , component:ComponentInfo{com.example.jpf/DeadlockActivity}, extra: no extras ]]) (1,[2]) (null,com.example.jpf.DeadlockActivity)
. $button1.onClick() (2,[23, 35, 40, 52, 74, 100, 184]) endstates:[10, 16, 17, 24, 25, 26, 36, 53, 40, 54, 40, 40, 40, 75, 40, 54, 40, 75] (com.example.jpf.DeadlockActivity,null)
. . $button1.onClick() (23,[216]) endstates:[69, 91, 93, 119, 120, 122, 121, 124, 161, 162, 164, 163, 164, 167, 165, 168, 166, 59, 217, 218, 220, 219, 220, 223, 221, 224, 222, 59, 223, 224, 225, 59] (com.example.jpf.DeadlockActivity,null)
. . $button2.onClick() (23,[231]) endstates:[72, 96, 98, 127, 128, 130, 129, 132, 172, 173, 175, 174, 175, 178, 176, 179, 177, 4, 232, 233, 235, 234, 235, 238, 236, 239, 237, 4, 238, 243] (com.example.jpf.DeadlockActivity,null)
. . $button1.onClick() (35,) endstates:[49] (com.example.jpf.DeadlockActivity,null)
. . $button2.onClick() (35,) endstates:[51] (com.example.jpf.DeadlockActivity,null)
. . $button1.onClick() (40,[185]) endstates:[104, 138, 139, 186, 187, 188] (com.example.jpf.DeadlockActivity,null)
. . $button2.onClick() (40,) endstates:[4] (com.example.jpf.DeadlockActivity,null)
. . $button1.onClick() (52,) endstates:[70] (com.example.jpf.DeadlockActivity,null)
. . $button2.onClick() (52,) endstates:[73] (com.example.jpf.DeadlockActivity,null)
. . $button1.onClick() (74,) endstates:[94] (com.example.jpf.DeadlockActivity,null)
. . $button2.onClick() (74,) endstates:[99] (com.example.jpf.DeadlockActivity,null)
. . $button1.onClick() (100,) endstates:[125] (com.example.jpf.DeadlockActivity,null)
. . $button2.onClick() (100,) endstates:[133] (com.example.jpf.DeadlockActivity,null)
. $button2.onClick() (2,[28, 43, 64, 87, 116, 215]) endstates:[13, 20, 21, 29, 30, 31, 44, 40, 65, 54, 56, 58, 75, 54, 78, 75, 102, 54, 75] (com.example.jpf.DeadlockActivity,null)
. . $button1.onClick() (28,) endstates:[82, 107, 109, 142, 143, 145, 144, 147, 191, 192, 194, 193, 194, 197, 195, 198, 196, 3] (com.example.jpf.DeadlockActivity,null)
. . $button2.onClick() (28,) endstates:[85, 112, 114, 150, 151, 153, 152, 155, 202, 203, 205, 204, 205, 208, 206, 209, 207] (com.example.jpf.DeadlockActivity,null)
. . $button1.onClick() (43,) endstates:[61] (com.example.jpf.DeadlockActivity,null)
. . $button2.onClick() (43,) endstates:[63] (com.example.jpf.DeadlockActivity,null)
. . $button1.onClick() (64,) endstates:[83] (com.example.jpf.DeadlockActivity,null)
. . $button2.onClick() (64,) endstates:[86] (com.example.jpf.DeadlockActivity,null)
. . $button1.onClick() (87,) endstates:[110] (com.example.jpf.DeadlockActivity,null)
. . $button2.onClick() (87,) endstates:[115] (com.example.jpf.DeadlockActivity,null)
. . $button1.onClick() (116,) endstates:[148] (com.example.jpf.DeadlockActivity,null)
. . $button2.onClick() (116,) endstates:[156] (com.example.jpf.DeadlockActivity,null)
